{
    "api_login":"*: Loging into Check Point management.",
    "api_error":"X: There was an error when posting to the API:",
    "api_last_session":"*: Reading last session file.",
    "api_last_session_sid":"*: I´ll use las session id: %s",
    "vpn_create_init":"*: Creating Start community with central and satellite gw.",
    "api_add_rule":"*: Adding new rule on top with the VPN community",
    "api_publish":"*: Publish current session. Changes should now appear at SmartConsole",
    "api_install_policy":">: Installing Policy on both gateways",
    "unlock": "*: Unlocking admin session."
}
